{
    "m_SelectedDeviceId": "943AY0JSEH",
    "m_SelectedPackage": {
        "deviceId": "943AY0JSEH",
        "name": "com.DefaultCompany.ARDraw",
        "processId": 15203,
        "exited": true
    },
    "m_SelectedPriority": 0,
    "m_KnownPackagesForSerialization": [
        {
            "deviceId": "22b36a04550d7ece",
            "name": "com.DefaultCompany.ARtest2",
            "processId": 22275,
            "exited": false
        },
        {
            "deviceId": "943AY0JSEH",
            "name": "com.DefaultCompany.ARtest2",
            "processId": 30774,
            "exited": true
        },
        {
            "deviceId": "943AY0JSEH",
            "name": "com.DefaultCompany.ARtest2",
            "processId": 325,
            "exited": true
        },
        {
            "deviceId": "943AY0JSEH",
            "name": "com.DefaultCompany.ARtest2",
            "processId": 10437,
            "exited": true
        },
        {
            "deviceId": "943AY0JSEH",
            "name": "com.DefaultCompany.ARtest2",
            "processId": 12080,
            "exited": true
        },
        {
            "deviceId": "943AY0JSEH",
            "name": "com.DefaultCompany.ARtest2",
            "processId": 12898,
            "exited": true
        },
        {
            "deviceId": "943AY0JSEH",
            "name": "com.DefaultCompany.ARtest2",
            "processId": 14581,
            "exited": true
        },
        {
            "deviceId": "943AY0JSEH",
            "name": "com.DefaultCompany.ARtest2",
            "processId": 15744,
            "exited": false
        },
        {
            "deviceId": "943AY0JSEH",
            "name": "com.DefaultCompany.ARtest2",
            "processId": 17230,
            "exited": true
        },
        {
            "deviceId": "943AY0JSEH",
            "name": "com.DefaultCompany.ARtest2",
            "processId": 17962,
            "exited": false
        },
        {
            "deviceId": "943AY0JSEH",
            "name": "com.DefaultCompany.ARtest2",
            "processId": 20323,
            "exited": false
        },
        {
            "deviceId": "943AY0JSEH",
            "name": "com.DefaultCompany.ARtest2",
            "processId": 21833,
            "exited": false
        },
        {
            "deviceId": "943AY0JSEH",
            "name": "com.DefaultCompany.ARtest2",
            "processId": 23773,
            "exited": false
        },
        {
            "deviceId": "943AY0JSEH",
            "name": "com.DefaultCompany.ARtest2",
            "processId": 17658,
            "exited": false
        },
        {
            "deviceId": "943AY0JSEH",
            "name": "com.DefaultCompany.ARtest2",
            "processId": 18504,
            "exited": true
        },
        {
            "deviceId": "943AY0JSEH",
            "name": "com.DefaultCompany.ARtest2",
            "processId": 20052,
            "exited": true
        },
        {
            "deviceId": "943AY0JSEH",
            "name": "com.DefaultCompany.ARtest2",
            "processId": 20972,
            "exited": false
        },
        {
            "deviceId": "943AY0JSEH",
            "name": "com.DefaultCompany.ARtest2",
            "processId": 22550,
            "exited": true
        },
        {
            "deviceId": "943AY0JSEH",
            "name": "com.DefaultCompany.ARtest2",
            "processId": 23156,
            "exited": true
        },
        {
            "deviceId": "943AY0JSEH",
            "name": "com.DefaultCompany.ARtest2",
            "processId": 2491,
            "exited": true
        },
        {
            "deviceId": "943AY0JSEH",
            "name": "com.DefaultCompany.ARtest2",
            "processId": 3225,
            "exited": false
        },
        {
            "deviceId": "943AY0JSEH",
            "name": "com.DefaultCompany.ARtest2",
            "processId": 4130,
            "exited": true
        },
        {
            "deviceId": "943AY0JSEH",
            "name": "com.DefaultCompany.ARtest2",
            "processId": 4592,
            "exited": true
        },
        {
            "deviceId": "943AY0JSEH",
            "name": "com.DefaultCompany.ARtest2",
            "processId": 6814,
            "exited": true
        },
        {
            "deviceId": "943AY0JSEH",
            "name": "com.DefaultCompany.ARDraw",
            "processId": 8633,
            "exited": true
        },
        {
            "deviceId": "943AY0JSEH",
            "name": "com.DefaultCompany.ARDraw",
            "processId": 9864,
            "exited": false
        },
        {
            "deviceId": "943AY0JSEH",
            "name": "com.DefaultCompany.ARDraw",
            "processId": 10967,
            "exited": true
        },
        {
            "deviceId": "943AY0JSEH",
            "name": "com.DefaultCompany.ARDraw",
            "processId": 11860,
            "exited": false
        },
        {
            "deviceId": "943AY0JSEH",
            "name": "com.DefaultCompany.ARDraw",
            "processId": 13333,
            "exited": false
        },
        {
            "deviceId": "943AY0JSEH",
            "name": "com.DefaultCompany.ARDraw",
            "processId": 13835,
            "exited": true
        },
        {
            "deviceId": "943AY0JSEH",
            "name": "com.DefaultCompany.ARDraw",
            "processId": 14708,
            "exited": true
        },
        {
            "deviceId": "943AY0JSEH",
            "name": "com.DefaultCompany.ARDraw",
            "processId": 16083,
            "exited": false
        },
        {
            "deviceId": "943AY0JSEH",
            "name": "com.DefaultCompany.ARDraw",
            "processId": 17411,
            "exited": true
        },
        {
            "deviceId": "943AY0JSEH",
            "name": "com.DefaultCompany.ARDraw",
            "processId": 18252,
            "exited": true
        },
        {
            "deviceId": "943AY0JSEH",
            "name": "com.DefaultCompany.ARDraw",
            "processId": 19358,
            "exited": true
        },
        {
            "deviceId": "943AY0JSEH",
            "name": "com.DefaultCompany.ARDraw",
            "processId": 20514,
            "exited": true
        },
        {
            "deviceId": "943AY0JSEH",
            "name": "com.DefaultCompany.ARDraw",
            "processId": 21886,
            "exited": true
        },
        {
            "deviceId": "943AY0JSEH",
            "name": "com.DefaultCompany.ARDraw",
            "processId": 23177,
            "exited": true
        },
        {
            "deviceId": "943AY0JSEH",
            "name": "com.DefaultCompany.ARDraw",
            "processId": 23679,
            "exited": true
        },
        {
            "deviceId": "943AY0JSEH",
            "name": "com.DefaultCompany.ARDraw",
            "processId": 24237,
            "exited": true
        },
        {
            "deviceId": "943AY0JSEH",
            "name": "com.DefaultCompany.ARDraw",
            "processId": 25250,
            "exited": true
        },
        {
            "deviceId": "943AY0JSEH",
            "name": "com.DefaultCompany.ARDraw",
            "processId": 26274,
            "exited": true
        },
        {
            "deviceId": "943AY0JSEH",
            "name": "com.DefaultCompany.ARDraw",
            "processId": 26845,
            "exited": true
        },
        {
            "deviceId": "943AY0JSEH",
            "name": "com.DefaultCompany.ARDraw",
            "processId": 27333,
            "exited": true
        },
        {
            "deviceId": "943AY0JSEH",
            "name": "com.DefaultCompany.ARDraw",
            "processId": 28068,
            "exited": true
        },
        {
            "deviceId": "943AY0JSEH",
            "name": "com.DefaultCompany.ARDraw",
            "processId": 27682,
            "exited": true
        },
        {
            "deviceId": "943AY0JSEH",
            "name": "com.DefaultCompany.ARDraw",
            "processId": 28456,
            "exited": true
        },
        {
            "deviceId": "943AY0JSEH",
            "name": "com.DefaultCompany.ARDraw",
            "processId": 29261,
            "exited": true
        },
        {
            "deviceId": "943AY0JSEH",
            "name": "com.DefaultCompany.ARDraw",
            "processId": 14346,
            "exited": false
        },
        {
            "deviceId": "943AY0JSEH",
            "name": "com.DefaultCompany.ARDraw",
            "processId": 15203,
            "exited": true
        }
    ],
    "m_Tags": {
        "m_Entries": [
            {
                "m_Name": "Filter by all listed tags",
                "m_Selected": false
            },
            {
                "m_Name": "No Filter",
                "m_Selected": true
            },
            {
                "m_Name": "",
                "m_Selected": false
            },
            {
                "m_Name": "Tag Control...",
                "m_Selected": false
            },
            {
                "m_Name": "",
                "m_Selected": false
            },
            {
                "m_Name": "Unity",
                "m_Selected": false
            },
            {
                "m_Name": "CRASH",
                "m_Selected": false
            }
        ]
    },
    "m_MemoryViewerState": {
        "MemoryWindowHeight": 300.0,
        "MemoryWindowWidth": 170.0,
        "MemoryTypeEnabled": [
            true,
            true,
            true,
            true,
            true,
            true,
            true,
            true,
            true,
            true
        ],
        "MemoryGroup": 1,
        "Behavior": 1
    },
    "m_Filter": "",
    "m_FilterIsRegularExpression": false,
    "m_SymbolPaths": []
}