{
    "m_SelectedDeviceId": "943AY0JSEH",
    "m_SelectedPackage": {
        "deviceId": "943AY0JSEH",
        "name": "com.DefaultCompany.ARAnchorMeasure",
        "processId": 15184,
        "exited": true
    },
    "m_SelectedPriority": 0,
    "m_KnownPackagesForSerialization": [
        {
            "deviceId": "943AY0JSEH",
            "name": "com.DefaultCompany.ARAnchorMeasure",
            "processId": 11457,
            "exited": true
        },
        {
            "deviceId": "943AY0JSEH",
            "name": "com.DefaultCompany.ARAnchorMeasure",
            "processId": 12175,
            "exited": true
        },
        {
            "deviceId": "943AY0JSEH",
            "name": "com.DefaultCompany.ARAnchorMeasure",
            "processId": 12896,
            "exited": true
        },
        {
            "deviceId": "943AY0JSEH",
            "name": "com.DefaultCompany.ARAnchorMeasure",
            "processId": 13654,
            "exited": true
        },
        {
            "deviceId": "943AY0JSEH",
            "name": "com.DefaultCompany.ARAnchorMeasure",
            "processId": 14386,
            "exited": true
        },
        {
            "deviceId": "943AY0JSEH",
            "name": "com.DefaultCompany.ARAnchorMeasure",
            "processId": 15289,
            "exited": true
        },
        {
            "deviceId": "943AY0JSEH",
            "name": "com.DefaultCompany.ARAnchorMeasure",
            "processId": 16115,
            "exited": true
        },
        {
            "deviceId": "943AY0JSEH",
            "name": "com.DefaultCompany.ARAnchorMeasure",
            "processId": 9509,
            "exited": true
        },
        {
            "deviceId": "943AY0JSEH",
            "name": "com.DefaultCompany.ARAnchorMeasure",
            "processId": 11972,
            "exited": false
        },
        {
            "deviceId": "943AY0JSEH",
            "name": "com.DefaultCompany.ARAnchorMeasure",
            "processId": 12708,
            "exited": true
        },
        {
            "deviceId": "943AY0JSEH",
            "name": "com.DefaultCompany.ARAnchorMeasure",
            "processId": 14245,
            "exited": true
        },
        {
            "deviceId": "943AY0JSEH",
            "name": "com.DefaultCompany.ARAnchorMeasure",
            "processId": 15184,
            "exited": true
        }
    ],
    "m_Tags": {
        "m_Entries": [
            {
                "m_Name": "Filter by all listed tags",
                "m_Selected": false
            },
            {
                "m_Name": "No Filter",
                "m_Selected": true
            },
            {
                "m_Name": "",
                "m_Selected": false
            },
            {
                "m_Name": "Tag Control...",
                "m_Selected": false
            },
            {
                "m_Name": "",
                "m_Selected": false
            },
            {
                "m_Name": "Unity",
                "m_Selected": false
            },
            {
                "m_Name": "CRASH",
                "m_Selected": false
            }
        ]
    },
    "m_MemoryViewerState": {
        "MemoryWindowHeight": 300.0,
        "MemoryWindowWidth": 170.0,
        "MemoryTypeEnabled": [
            true,
            true,
            true,
            true,
            true,
            true,
            true,
            true,
            true,
            true
        ],
        "MemoryGroup": 1,
        "Behavior": 1
    },
    "m_Filter": "",
    "m_FilterIsRegularExpression": false,
    "m_SymbolPaths": []
}